{
  "status": 200,
  "message": "Success",
  "data": {
    "content": [
      {
        "ktsn": 120000013753,
        "txgrpGroupCd": "IN",
        "upTxgrpGroupCd": "IN",
        "ktsnLtnNm": "praescutellaris",
        "stnm": "Hylophilus praescutellaris Pic, 1914",
        "ktsnKrnNm": "뿔벌레붙이",
        "nmcltrNm": "Pic",
        "nmngYr": "1914",
        "regDt": "2026-02-09T09:01:52",
        "rgtrId": "coreit",
        "mdfcnDt": null,
        "mdfrId": null,
        "corsynSeYn": "Y",
        "phlmKtsnLtnNm": "Arthropoda",
        "phlmKtsnKrnNm": "절지동물문",
        "phlmKtsn": 120000013748,
        "classKtsnLtnNm": "Insecta",
        "classKtsnKrnNm": "곤충강",
        "classKtsn": 120000013749,
        "orderKtsnLtnNm": "Coleoptera",
        "orderKtsnKrnNm": "딱정벌레목",
        "orderKtsn": 120000013750,
        "fmlyKtsnLtnNm": "Aderidae",
        "fmlyKtsnKrnNm": "닮은잎벌레붙이과",
        "fmlyKtsn": 120000013751,
        "gnusKtsnLtnNm": "Hylophilus",
        "gnusKtsnKrnNm": null,
        "gnusKtsn": 120000013752,
        "sbguKtsnLtnNm": null,
        "sbguKtsnKrnNm": null,
        "sbguKtsn": null,
        "specsKtsnLtnNm": "praescutellaris",
        "specsKtsnKrnNm": "뿔벌레붙이",
        "specsKtsn": 120000013753,
        "sspecsKtsnLtnNm": null,
        "sspecsKtsnKrnNm": null,
        "sspecsKtsn": null,
        "vrtyKtsnLtnNm": null,
        "vrtyKtsnKrnNm": null,
        "vrtyKtsn": null,
        "sttyMngSpecsYn": "N",
        "egspcsYn": "N",
        "hrmflSpecsYn": "N",
        "eatprhbSpecsYn": "N",
        "cptrPckngPrhbSpecsYn": "N",
        "expIncmPrmsnTrgtSpecsYn": "N",
        "hntgAnmlYn": "N",
        "wldflwAnmlYn": "N",
        "artfcPrlrtCptrPrmsnSpecsYn": "N",
        "ovseaShpgotAprvTrgtSpecsYn": "N",
        "dispYn": "N",
        "phspYn": "N",
        "korUnqBispYn": "N",
        "ntnClimtVartnIdctSpecsYn": "N",
        "ntmYn": "N",
        "mprsCrtureDsgnSpecsYn": "N"
      },
      {
        "ktsn": 120000013757,
        "txgrpGroupCd": "IN",
        "upTxgrpGroupCd": "IN",
        "ktsnLtnNm": "kozlovi",
        "stnm": "Apteroloma kozlovi kozlovi Senenov and Znojko, 1932",
        "ktsnKrnNm": "먼지송장벌레",
        "nmcltrNm": "Senenov and Znojko",
        "nmngYr": "1932",
        "regDt": "2026-02-09T09:01:52",
        "rgtrId": "coreit",
        "mdfcnDt": null,
        "mdfrId": null,
        "corsynSeYn": "Y",
        "phlmKtsnLtnNm": "Arthropoda",
        "phlmKtsnKrnNm": "절지동물문",
        "phlmKtsn": 120000013748,
        "classKtsnLtnNm": "Insecta",
        "classKtsnKrnNm": "곤충강",
        "classKtsn": 120000013749,
        "orderKtsnLtnNm": "Coleoptera",
        "orderKtsnKrnNm": "딱정벌레목",
        "orderKtsn": 120000013750,
        "fmlyKtsnLtnNm": "Agyrtidae",
        "fmlyKtsnKrnNm": "먼지송장벌레과",
        "fmlyKtsn": 120000013754,
        "gnusKtsnLtnNm": "Apteroloma",
        "gnusKtsnKrnNm": "먼지송장벌레속",
        "gnusKtsn": 120000013755,
        "sbguKtsnLtnNm": null,
        "sbguKtsnKrnNm": null,
        "sbguKtsn": null,
        "specsKtsnLtnNm": "kozlovi",
        "specsKtsnKrnNm": null,
        "specsKtsn": 120000013756,
        "sspecsKtsnLtnNm": "kozlovi",
        "sspecsKtsnKrnNm": "먼지송장벌레",
        "sspecsKtsn": 120000013757,
        "vrtyKtsnLtnNm": null,
        "vrtyKtsnKrnNm": null,
        "vrtyKtsn": null,
        "sttyMngSpecsYn": "N",
        "egspcsYn": "N",
        "hrmflSpecsYn": "N",
        "eatprhbSpecsYn": "N",
        "cptrPckngPrhbSpecsYn": "N",
        "expIncmPrmsnTrgtSpecsYn": "N",
        "hntgAnmlYn": "N",
        "wldflwAnmlYn": "N",
        "artfcPrlrtCptrPrmsnSpecsYn": "N",
        "ovseaShpgotAprvTrgtSpecsYn": "N",
        "dispYn": "N",
        "phspYn": "N",
        "korUnqBispYn": "N",
        "ntnClimtVartnIdctSpecsYn": "N",
        "ntmYn": "N",
        "mprsCrtureDsgnSpecsYn": "N"
      },
      {
        "ktsn": 120000013759,
        "txgrpGroupCd": "IN",
        "upTxgrpGroupCd": "IN",
        "ktsnLtnNm": "koebelei",
        "stnm": "Pteroloma koebelei Van Dyke, 1928",
        "ktsnKrnNm": "큰먼지송장벌레",
        "nmcltrNm": "Van Dyke",
        "nmngYr": "1928",
        "regDt": "2026-02-09T09:01:52",
        "rgtrId": "coreit",
        "mdfcnDt": null,
        "mdfrId": null,
        "corsynSeYn": "Y",
        "phlmKtsnLtnNm": "Arthropoda",
        "phlmKtsnKrnNm": "절지동물문",
        "phlmKtsn": 120000013748,
        "classKtsnLtnNm": "Insecta",
        "classKtsnKrnNm": "곤충강",
        "classKtsn": 120000013749,
        "orderKtsnLtnNm": "Coleoptera",
        "orderKtsnKrnNm": "딱정벌레목",
        "orderKtsn": 120000013750,
        "fmlyKtsnLtnNm": "Agyrtidae",
        "fmlyKtsnKrnNm": "먼지송장벌레과",
        "fmlyKtsn": 120000013754,
        "gnusKtsnLtnNm": "Pteroloma",
        "gnusKtsnKrnNm": null,
        "gnusKtsn": 120000013758,
        "sbguKtsnLtnNm": null,
        "sbguKtsnKrnNm": null,
        "sbguKtsn": null,
        "specsKtsnLtnNm": "koebelei",
        "specsKtsnKrnNm": "큰먼지송장벌레",
        "specsKtsn": 120000013759,
        "sspecsKtsnLtnNm": null,
        "sspecsKtsnKrnNm": null,
        "sspecsKtsn": null,
        "vrtyKtsnLtnNm": null,
        "vrtyKtsnKrnNm": null,
        "vrtyKtsn": null,
        "sttyMngSpecsYn": "N",
        "egspcsYn": "N",
        "hrmflSpecsYn": "N",
        "eatprhbSpecsYn": "N",
        "cptrPckngPrhbSpecsYn": "N",
        "expIncmPrmsnTrgtSpecsYn": "N",
        "hntgAnmlYn": "N",
        "wldflwAnmlYn": "N",
        "artfcPrlrtCptrPrmsnSpecsYn": "N",
        "ovseaShpgotAprvTrgtSpecsYn": "N",
        "dispYn": "N",
        "phspYn": "N",
        "korUnqBispYn": "N",
        "ntnClimtVartnIdctSpecsYn": "N",
        "ntmYn": "N",
        "mprsCrtureDsgnSpecsYn": "N"
      },
      {
        "ktsn": 120000013762,
        "txgrpGroupCd": "IN",
        "upTxgrpGroupCd": "IN",
        "ktsnLtnNm": "sinica",
        "stnm": "Amphizoa sinica Yu & Stork, 1991",
        "ktsnKrnNm": "백두벌레",
        "nmcltrNm": "Yu & Stork",
        "nmngYr": "1991",
        "regDt": "2026-02-09T09:01:52",
        "rgtrId": "coreit",
        "mdfcnDt": null,
        "mdfrId": null,
        "corsynSeYn": "Y",
        "phlmKtsnLtnNm": "Arthropoda",
        "phlmKtsnKrnNm": "절지동물문",
        "phlmKtsn": 120000013748,
        "classKtsnLtnNm": "Insecta",
        "classKtsnKrnNm": "곤충강",
        "classKtsn": 120000013749,
        "orderKtsnLtnNm": "Coleoptera",
        "orderKtsnKrnNm": "딱정벌레목",
        "orderKtsn": 120000013750,
        "fmlyKtsnLtnNm": "Amphizoidae",
        "fmlyKtsnKrnNm": "백두벌레과",
        "fmlyKtsn": 120000013760,
        "gnusKtsnLtnNm": "Amphizoa",
        "gnusKtsnKrnNm": "백두벌레속",
        "gnusKtsn": 120000013761,
        "sbguKtsnLtnNm": null,
        "sbguKtsnKrnNm": null,
        "sbguKtsn": null,
        "specsKtsnLtnNm": "sinica",
        "specsKtsnKrnNm": "백두벌레",
        "specsKtsn": 120000013762,
        "sspecsKtsnLtnNm": null,
        "sspecsKtsnKrnNm": null,
        "sspecsKtsn": null,
        "vrtyKtsnLtnNm": null,
        "vrtyKtsnKrnNm": null,
        "vrtyKtsn": null,
        "sttyMngSpecsYn": "N",
        "egspcsYn": "N",
        "hrmflSpecsYn": "N",
        "eatprhbSpecsYn": "N",
        "cptrPckngPrhbSpecsYn": "N",
        "expIncmPrmsnTrgtSpecsYn": "N",
        "hntgAnmlYn": "N",
        "wldflwAnmlYn": "N",
        "artfcPrlrtCptrPrmsnSpecsYn": "N",
        "ovseaShpgotAprvTrgtSpecsYn": "N",
        "dispYn": "N",
        "phspYn": "N",
        "korUnqBispYn": "N",
        "ntnClimtVartnIdctSpecsYn": "N",
        "ntmYn": "N",
        "mprsCrtureDsgnSpecsYn": "N"
      },
      {
        "ktsn": 120000013766,
        "txgrpGroupCd": "IN",
        "upTxgrpGroupCd": "IN",
        "ktsnLtnNm": "coiffaiti",
        "stnm": "Anthelephila bramina coiffaiti (Bonadona, 1964)",
        "ktsnKrnNm": "개미뿔벌레",
        "nmcltrNm": null,
        "nmngYr": null,
        "regDt": "2026-02-09T09:01:52",
        "rgtrId": "coreit",
        "mdfcnDt": null,
        "mdfrId": null,
        "corsynSeYn": "Y",
        "phlmKtsnLtnNm": "Arthropoda",
        "phlmKtsnKrnNm": "절지동물문",
        "phlmKtsn": 120000013748,
        "classKtsnLtnNm": "Insecta",
        "classKtsnKrnNm": "곤충강",
        "classKtsn": 120000013749,
        "orderKtsnLtnNm": "Coleoptera",
        "orderKtsnKrnNm": "딱정벌레목",
        "orderKtsn": 120000013750,
        "fmlyKtsnLtnNm": "Anthicidae",
        "fmlyKtsnKrnNm": "뿔벌레과",
        "fmlyKtsn": 120000013763,
        "gnusKtsnLtnNm": "Anthelephila",
        "gnusKtsnKrnNm": "개미뿔벌레속",
        "gnusKtsn": 120000013764,
        "sbguKtsnLtnNm": null,
        "sbguKtsnKrnNm": null,
        "sbguKtsn": null,
        "specsKtsnLtnNm": "bramina",
        "specsKtsnKrnNm": null,
        "specsKtsn": 120000013765,
        "sspecsKtsnLtnNm": "coiffaiti",
        "sspecsKtsnKrnNm": "개미뿔벌레",
        "sspecsKtsn": 120000013766,
        "vrtyKtsnLtnNm": null,
        "vrtyKtsnKrnNm": null,
        "vrtyKtsn": null,
        "sttyMngSpecsYn": "N",
        "egspcsYn": "N",
        "hrmflSpecsYn": "N",
        "eatprhbSpecsYn": "N",
        "cptrPckngPrhbSpecsYn": "N",
        "expIncmPrmsnTrgtSpecsYn": "N",
        "hntgAnmlYn": "N",
        "wldflwAnmlYn": "N",
        "artfcPrlrtCptrPrmsnSpecsYn": "N",
        "ovseaShpgotAprvTrgtSpecsYn": "N",
        "dispYn": "N",
        "phspYn": "N",
        "korUnqBispYn": "N",
        "ntnClimtVartnIdctSpecsYn": "N",
        "ntmYn": "N",
        "mprsCrtureDsgnSpecsYn": "N"
      },
      {
        "ktsn": 120000013767,
        "txgrpGroupCd": "IN",
        "upTxgrpGroupCd": "IN",
        "ktsnLtnNm": "imperatrix",
        "stnm": "Anthelephila imperatrix LaFerté-Sénectère, 1849",
        "ktsnKrnNm": "엑스무늬개미뿔벌레",
        "nmcltrNm": "LaFerté-Sénectère",
        "nmngYr": "1849",
        "regDt": "2026-02-09T09:01:52",
        "rgtrId": "coreit",
        "mdfcnDt": null,
        "mdfrId": null,
        "corsynSeYn": "Y",
        "phlmKtsnLtnNm": "Arthropoda",
        "phlmKtsnKrnNm": "절지동물문",
        "phlmKtsn": 120000013748,
        "classKtsnLtnNm": "Insecta",
        "classKtsnKrnNm": "곤충강",
        "classKtsn": 120000013749,
        "orderKtsnLtnNm": "Coleoptera",
        "orderKtsnKrnNm": "딱정벌레목",
        "orderKtsn": 120000013750,
        "fmlyKtsnLtnNm": "Anthicidae",
        "fmlyKtsnKrnNm": "뿔벌레과",
        "fmlyKtsn": 120000013763,
        "gnusKtsnLtnNm": "Anthelephila",
        "gnusKtsnKrnNm": "개미뿔벌레속",
        "gnusKtsn": 120000013764,
        "sbguKtsnLtnNm": null,
        "sbguKtsnKrnNm": null,
        "sbguKtsn": null,
        "specsKtsnLtnNm": "imperatrix",
        "specsKtsnKrnNm": "엑스무늬개미뿔벌레",
        "specsKtsn": 120000013767,
        "sspecsKtsnLtnNm": null,
        "sspecsKtsnKrnNm": null,
        "sspecsKtsn": null,
        "vrtyKtsnLtnNm": null,
        "vrtyKtsnKrnNm": null,
        "vrtyKtsn": null,
        "sttyMngSpecsYn": "N",
        "egspcsYn": "N",
        "hrmflSpecsYn": "N",
        "eatprhbSpecsYn": "N",
        "cptrPckngPrhbSpecsYn": "N",
        "expIncmPrmsnTrgtSpecsYn": "N",
        "hntgAnmlYn": "N",
        "wldflwAnmlYn": "N",
        "artfcPrlrtCptrPrmsnSpecsYn": "N",
        "ovseaShpgotAprvTrgtSpecsYn": "N",
        "dispYn": "N",
        "phspYn": "N",
        "korUnqBispYn": "N",
        "ntnClimtVartnIdctSpecsYn": "N",
        "ntmYn": "N",
        "mprsCrtureDsgnSpecsYn": "N"
      },
      {
        "ktsn": 120000013770,
        "txgrpGroupCd": "IN",
        "upTxgrpGroupCd": "IN",
        "ktsnLtnNm": "cruralis",
        "stnm": "Anthicomorphus (Anthicomorphus) cruralis Lewis, 1895",
        "ktsnKrnNm": "작은검은좀뿔벌레",
        "nmcltrNm": "Lewis",
        "nmngYr": "1895",
        "regDt": "2026-02-09T09:01:52",
        "rgtrId": "coreit",
        "mdfcnDt": null,
        "mdfrId": null,
        "corsynSeYn": "Y",
        "phlmKtsnLtnNm": "Arthropoda",
        "phlmKtsnKrnNm": "절지동물문",
        "phlmKtsn": 120000013748,
        "classKtsnLtnNm": "Insecta",
        "classKtsnKrnNm": "곤충강",
        "classKtsn": 120000013749,
        "orderKtsnLtnNm": "Coleoptera",
        "orderKtsnKrnNm": "딱정벌레목",
        "orderKtsn": 120000013750,
        "fmlyKtsnLtnNm": "Anthicidae",
        "fmlyKtsnKrnNm": "뿔벌레과",
        "fmlyKtsn": 120000013763,
        "gnusKtsnLtnNm": "Anthicomorphus",
        "gnusKtsnKrnNm": null,
        "gnusKtsn": 120000013768,
        "sbguKtsnLtnNm": "Anthicomorphus",
        "sbguKtsnKrnNm": null,
        "sbguKtsn": 120000013769,
        "specsKtsnLtnNm": "cruralis",
        "specsKtsnKrnNm": "작은검은좀뿔벌레",
        "specsKtsn": 120000013770,
        "sspecsKtsnLtnNm": null,
        "sspecsKtsnKrnNm": null,
        "sspecsKtsn": null,
        "vrtyKtsnLtnNm": null,
        "vrtyKtsnKrnNm": null,
        "vrtyKtsn": null,
        "sttyMngSpecsYn": "N",
        "egspcsYn": "N",
        "hrmflSpecsYn": "N",
        "eatprhbSpecsYn": "N",
        "cptrPckngPrhbSpecsYn": "N",
        "expIncmPrmsnTrgtSpecsYn": "N",
        "hntgAnmlYn": "N",
        "wldflwAnmlYn": "N",
        "artfcPrlrtCptrPrmsnSpecsYn": "N",
        "ovseaShpgotAprvTrgtSpecsYn": "N",
        "dispYn": "N",
        "phspYn": "N",
        "korUnqBispYn": "N",
        "ntnClimtVartnIdctSpecsYn": "N",
        "ntmYn": "N",
        "mprsCrtureDsgnSpecsYn": "N"
      },
      {
        "ktsn": 120000013772,
        "txgrpGroupCd": "IN",
        "upTxgrpGroupCd": "IN",
        "ktsnLtnNm": "niponicus",
        "stnm": "Anthicomorphus (Anthicomorphus) niponicus niponicus Lewis, 1895",
        "ktsnKrnNm": "검은좀뿔벌레",
        "nmcltrNm": "Lewis",
        "nmngYr": "1895",
        "regDt": "2026-02-09T09:01:52",
        "rgtrId": "coreit",
        "mdfcnDt": null,
        "mdfrId": null,
        "corsynSeYn": "Y",
        "phlmKtsnLtnNm": "Arthropoda",
        "phlmKtsnKrnNm": "절지동물문",
        "phlmKtsn": 120000013748,
        "classKtsnLtnNm": "Insecta",
        "classKtsnKrnNm": "곤충강",
        "classKtsn": 120000013749,
        "orderKtsnLtnNm": "Coleoptera",
        "orderKtsnKrnNm": "딱정벌레목",
        "orderKtsn": 120000013750,
        "fmlyKtsnLtnNm": "Anthicidae",
        "fmlyKtsnKrnNm": "뿔벌레과",
        "fmlyKtsn": 120000013763,
        "gnusKtsnLtnNm": "Anthicomorphus",
        "gnusKtsnKrnNm": null,
        "gnusKtsn": 120000013768,
        "sbguKtsnLtnNm": "Anthicomorphus",
        "sbguKtsnKrnNm": null,
        "sbguKtsn": 120000013769,
        "specsKtsnLtnNm": "niponicus",
        "specsKtsnKrnNm": null,
        "specsKtsn": 120000013771,
        "sspecsKtsnLtnNm": "niponicus",
        "sspecsKtsnKrnNm": "검은좀뿔벌레",
        "sspecsKtsn": 120000013772,
        "vrtyKtsnLtnNm": null,
        "vrtyKtsnKrnNm": null,
        "vrtyKtsn": null,
        "sttyMngSpecsYn": "N",
        "egspcsYn": "N",
        "hrmflSpecsYn": "N",
        "eatprhbSpecsYn": "N",
        "cptrPckngPrhbSpecsYn": "N",
        "expIncmPrmsnTrgtSpecsYn": "N",
        "hntgAnmlYn": "N",
        "wldflwAnmlYn": "N",
        "artfcPrlrtCptrPrmsnSpecsYn": "N",
        "ovseaShpgotAprvTrgtSpecsYn": "N",
        "dispYn": "N",
        "phspYn": "N",
        "korUnqBispYn": "N",
        "ntnClimtVartnIdctSpecsYn": "N",
        "ntmYn": "N",
        "mprsCrtureDsgnSpecsYn": "N"
      },
      {
        "ktsn": 120000013778,
        "txgrpGroupCd": "IN",
        "upTxgrpGroupCd": "IN",
        "ktsnLtnNm": "assequens",
        "stnm": "Clavicollis assequens (Krekich-Strassoldo, 1931)",
        "ktsnKrnNm": "북방깜장뿔벌레",
        "nmcltrNm": null,
        "nmngYr": null,
        "regDt": "2026-02-09T09:01:52",
        "rgtrId": "coreit",
        "mdfcnDt": null,
        "mdfrId": null,
        "corsynSeYn": "Y",
        "phlmKtsnLtnNm": "Arthropoda",
        "phlmKtsnKrnNm": "절지동물문",
        "phlmKtsn": 120000013748,
        "classKtsnLtnNm": "Insecta",
        "classKtsnKrnNm": "곤충강",
        "classKtsn": 120000013749,
        "orderKtsnLtnNm": "Coleoptera",
        "orderKtsnKrnNm": "딱정벌레목",
        "orderKtsn": 120000013750,
        "fmlyKtsnLtnNm": "Anthicidae",
        "fmlyKtsnKrnNm": "뿔벌레과",
        "fmlyKtsn": 120000013763,
        "gnusKtsnLtnNm": "Clavicollis",
        "gnusKtsnKrnNm": "좀개미뿔벌레속",
        "gnusKtsn": 120000013777,
        "sbguKtsnLtnNm": null,
        "sbguKtsnKrnNm": null,
        "sbguKtsn": null,
        "specsKtsnLtnNm": "assequens",
        "specsKtsnKrnNm": "북방깜장뿔벌레",
        "specsKtsn": 120000013778,
        "sspecsKtsnLtnNm": null,
        "sspecsKtsnKrnNm": null,
        "sspecsKtsn": null,
        "vrtyKtsnLtnNm": null,
        "vrtyKtsnKrnNm": null,
        "vrtyKtsn": null,
        "sttyMngSpecsYn": "N",
        "egspcsYn": "N",
        "hrmflSpecsYn": "N",
        "eatprhbSpecsYn": "N",
        "cptrPckngPrhbSpecsYn": "N",
        "expIncmPrmsnTrgtSpecsYn": "N",
        "hntgAnmlYn": "N",
        "wldflwAnmlYn": "N",
        "artfcPrlrtCptrPrmsnSpecsYn": "N",
        "ovseaShpgotAprvTrgtSpecsYn": "N",
        "dispYn": "N",
        "phspYn": "N",
        "korUnqBispYn": "N",
        "ntnClimtVartnIdctSpecsYn": "N",
        "ntmYn": "N",
        "mprsCrtureDsgnSpecsYn": "N"
      },
      {
        "ktsn": 120000013779,
        "txgrpGroupCd": "IN",
        "upTxgrpGroupCd": "IN",
        "ktsnLtnNm": "laevipennis",
        "stnm": "Clavicollis laevipennis (Marseul, 1877)",
        "ktsnKrnNm": "좀개미뿔벌레",
        "nmcltrNm": null,
        "nmngYr": null,
        "regDt": "2026-02-09T09:01:52",
        "rgtrId": "coreit",
        "mdfcnDt": null,
        "mdfrId": null,
        "corsynSeYn": "Y",
        "phlmKtsnLtnNm": "Arthropoda",
        "phlmKtsnKrnNm": "절지동물문",
        "phlmKtsn": 120000013748,
        "classKtsnLtnNm": "Insecta",
        "classKtsnKrnNm": "곤충강",
        "classKtsn": 120000013749,
        "orderKtsnLtnNm": "Coleoptera",
        "orderKtsnKrnNm": "딱정벌레목",
        "orderKtsn": 120000013750,
        "fmlyKtsnLtnNm": "Anthicidae",
        "fmlyKtsnKrnNm": "뿔벌레과",
        "fmlyKtsn": 120000013763,
        "gnusKtsnLtnNm": "Clavicollis",
        "gnusKtsnKrnNm": "좀개미뿔벌레속",
        "gnusKtsn": 120000013777,
        "sbguKtsnLtnNm": null,
        "sbguKtsnKrnNm": null,
        "sbguKtsn": null,
        "specsKtsnLtnNm": "laevipennis",
        "specsKtsnKrnNm": "좀개미뿔벌레",
        "specsKtsn": 120000013779,
        "sspecsKtsnLtnNm": null,
        "sspecsKtsnKrnNm": null,
        "sspecsKtsn": null,
        "vrtyKtsnLtnNm": null,
        "vrtyKtsnKrnNm": null,
        "vrtyKtsn": null,
        "sttyMngSpecsYn": "N",
        "egspcsYn": "N",
        "hrmflSpecsYn": "N",
        "eatprhbSpecsYn": "N",
        "cptrPckngPrhbSpecsYn": "N",
        "expIncmPrmsnTrgtSpecsYn": "N",
        "hntgAnmlYn": "N",
        "wldflwAnmlYn": "N",
        "artfcPrlrtCptrPrmsnSpecsYn": "N",
        "ovseaShpgotAprvTrgtSpecsYn": "N",
        "dispYn": "N",
        "phspYn": "N",
        "korUnqBispYn": "N",
        "ntnClimtVartnIdctSpecsYn": "N",
        "ntmYn": "N",
        "mprsCrtureDsgnSpecsYn": "N"
      }
    ],
    "pageInfo": {
      "totalElements": 21395,
      "totalPages": 2140,
      "currentPage": 0,
      "currentPageNumber": 1,
      "size": 10,
      "numberOfElements": 10,
      "first": true,
      "last": false,
      "hasNext": true,
      "hasPrevious": false,
      "nextPage": 2,
      "previousPage": 1,
      "pageNumbers": [
        {
          "pageNumber": 1,
          "current": true
        },
        {
          "pageNumber": 2,
          "current": false
        },
        {
          "pageNumber": 3,
          "current": false
        },
        {
          "pageNumber": 4,
          "current": false
        },
        {
          "pageNumber": 5,
          "current": false
        },
        {
          "pageNumber": 6,
          "current": false
        },
        {
          "pageNumber": 7,
          "current": false
        },
        {
          "pageNumber": 8,
          "current": false
        },
        {
          "pageNumber": 9,
          "current": false
        },
        {
          "pageNumber": 10,
          "current": false
        }
      ],
      "firstPageNumber": 1,
      "lastPageNumber": 10,
      "previousBlockLastPage": 1,
      "nextBlockFirstPage": 11
    }
  },
  "timestamp": "2026-06-02 16:07:22"
}