{
  "fetchedAt": "2026-06-02 16:07:22",
  "processedAt": "2026-06-02T07:09:42.540Z",
  "source": "KTSN /gwsvc/openapi/rest/ktsn/taxons/search?schTxgrpGroupCd=IN&page=1",
  "apiResponseStatus": 200,
  "apiResponseMessage": "Success",
  "pageInfo": {
    "totalElements": 21395,
    "totalPages": 2140,
    "currentPage": 0,
    "currentPageNumber": 1,
    "size": 10,
    "numberOfElements": 10,
    "first": true,
    "last": false,
    "hasNext": true,
    "hasPrevious": false,
    "nextPage": 2,
    "previousPage": 1,
    "pageNumbers": [
      {
        "pageNumber": 1,
        "current": true
      },
      {
        "pageNumber": 2,
        "current": false
      },
      {
        "pageNumber": 3,
        "current": false
      },
      {
        "pageNumber": 4,
        "current": false
      },
      {
        "pageNumber": 5,
        "current": false
      },
      {
        "pageNumber": 6,
        "current": false
      },
      {
        "pageNumber": 7,
        "current": false
      },
      {
        "pageNumber": 8,
        "current": false
      },
      {
        "pageNumber": 9,
        "current": false
      },
      {
        "pageNumber": 10,
        "current": false
      }
    ],
    "firstPageNumber": 1,
    "lastPageNumber": 10,
    "previousBlockLastPage": 1,
    "nextBlockFirstPage": 11
  },
  "receivedItems": 10,
  "flagsLegend": {
    "egspcsYn": "멸종위기종",
    "ntmYn": "천연기념물",
    "korUnqBispYn": "한국고유종",
    "dispYn": "생태계교란생물",
    "hrmflSpecsYn": "유해야생생물(추정)",
    "phspYn": "위해우려종(추정)",
    "mprsCrtureDsgnSpecsYn": "해양보호생물(추정)",
    "ntnClimtVartnIdctSpecsYn": "국가 기후변화 지표종(추정)",
    "cptrPckngPrhbSpecsYn": "포획·채집 금지(추정)",
    "artfcPrlrtCptrPrmsnSpecsYn": "인공증식 포획 허가(추정)",
    "expIncmPrmsnTrgtSpecsYn": "수출·수입 허가 대상(추정)",
    "ovseaShpgotAprvTrgtSpecsYn": "해외 반출 승인 대상(추정)",
    "eatprhbSpecsYn": "식용 금지(추정)",
    "hntgAnmlYn": "수렵 동물(추정)",
    "wldflwAnmlYn": "야생 동물(추정)",
    "sttyMngSpecsYn": "상태 관리종(추정)",
    "corsynSeYn": "정명 채택 여부(추정)"
  },
  "flagStats": {
    "멸종위기종": {
      "key": "egspcsYn",
      "semantic": "endangered",
      "Y": 0,
      "N": 10,
      "other": 0,
      "YsamplesKr": []
    },
    "천연기념물": {
      "key": "ntmYn",
      "semantic": "naturalMonument",
      "Y": 0,
      "N": 10,
      "other": 0,
      "YsamplesKr": []
    },
    "한국고유종": {
      "key": "korUnqBispYn",
      "semantic": "endemic",
      "Y": 0,
      "N": 10,
      "other": 0,
      "YsamplesKr": []
    },
    "생태계교란생물": {
      "key": "dispYn",
      "semantic": "invasive",
      "Y": 0,
      "N": 10,
      "other": 0,
      "YsamplesKr": []
    },
    "유해야생생물(추정)": {
      "key": "hrmflSpecsYn",
      "semantic": "harmfulWildlife",
      "Y": 0,
      "N": 10,
      "other": 0,
      "YsamplesKr": []
    },
    "위해우려종(추정)": {
      "key": "phspYn",
      "semantic": "hazardousConcern",
      "Y": 0,
      "N": 10,
      "other": 0,
      "YsamplesKr": []
    },
    "해양보호생물(추정)": {
      "key": "mprsCrtureDsgnSpecsYn",
      "semantic": "marineProtected",
      "Y": 0,
      "N": 10,
      "other": 0,
      "YsamplesKr": []
    },
    "국가 기후변화 지표종(추정)": {
      "key": "ntnClimtVartnIdctSpecsYn",
      "semantic": "climateIndicator",
      "Y": 0,
      "N": 10,
      "other": 0,
      "YsamplesKr": []
    },
    "포획·채집 금지(추정)": {
      "key": "cptrPckngPrhbSpecsYn",
      "semantic": "captureProhibited",
      "Y": 0,
      "N": 10,
      "other": 0,
      "YsamplesKr": []
    },
    "인공증식 포획 허가(추정)": {
      "key": "artfcPrlrtCptrPrmsnSpecsYn",
      "semantic": "artificialProliferationPermit",
      "Y": 0,
      "N": 10,
      "other": 0,
      "YsamplesKr": []
    },
    "수출·수입 허가 대상(추정)": {
      "key": "expIncmPrmsnTrgtSpecsYn",
      "semantic": "exportImportPermitTarget",
      "Y": 0,
      "N": 10,
      "other": 0,
      "YsamplesKr": []
    },
    "해외 반출 승인 대상(추정)": {
      "key": "ovseaShpgotAprvTrgtSpecsYn",
      "semantic": "overseasShipApprovalTarget",
      "Y": 0,
      "N": 10,
      "other": 0,
      "YsamplesKr": []
    },
    "식용 금지(추정)": {
      "key": "eatprhbSpecsYn",
      "semantic": "eatingProhibited",
      "Y": 0,
      "N": 10,
      "other": 0,
      "YsamplesKr": []
    },
    "수렵 동물(추정)": {
      "key": "hntgAnmlYn",
      "semantic": "huntableAnimal",
      "Y": 0,
      "N": 10,
      "other": 0,
      "YsamplesKr": []
    },
    "야생 동물(추정)": {
      "key": "wldflwAnmlYn",
      "semantic": "wildAnimal",
      "Y": 0,
      "N": 10,
      "other": 0,
      "YsamplesKr": []
    },
    "상태 관리종(추정)": {
      "key": "sttyMngSpecsYn",
      "semantic": "statusManaged",
      "Y": 0,
      "N": 10,
      "other": 0,
      "YsamplesKr": []
    },
    "정명 채택 여부(추정)": {
      "key": "corsynSeYn",
      "semantic": "acceptedName",
      "Y": 10,
      "N": 0,
      "other": 0,
      "YsamplesKr": [
        "뿔벌레붙이",
        "먼지송장벌레",
        "큰먼지송장벌레",
        "백두벌레",
        "개미뿔벌레"
      ]
    }
  },
  "categorized": {
    "endangered": {
      "label": "멸종위기종",
      "count": 0,
      "species": []
    },
    "naturalMonument": {
      "label": "천연기념물",
      "count": 0,
      "species": []
    },
    "endemic": {
      "label": "한국고유종",
      "count": 0,
      "species": []
    },
    "invasive": {
      "label": "생태계교란생물",
      "count": 0,
      "species": []
    },
    "harmfulWildlife": {
      "label": "유해야생생물(추정)",
      "count": 0,
      "species": []
    },
    "hazardousConcern": {
      "label": "위해우려종(추정)",
      "count": 0,
      "species": []
    }
  },
  "species": [
    {
      "ktsn": 120000013753,
      "scientificName": "praescutellaris",
      "commonName": "뿔벌레붙이",
      "nomenclaturalAuthor": "Pic",
      "namingYear": "1914",
      "taxonomy": {
        "phylum": {
          "sci": "Arthropoda",
          "kr": "절지동물문",
          "ktsn": 120000013748
        },
        "class": {
          "sci": "Insecta",
          "kr": "곤충강",
          "ktsn": 120000013749
        },
        "order": {
          "sci": "Coleoptera",
          "kr": "딱정벌레목",
          "ktsn": 120000013750
        },
        "family": {
          "sci": "Aderidae",
          "kr": "닮은잎벌레붙이과",
          "ktsn": 120000013751
        },
        "genus": {
          "sci": "Hylophilus",
          "kr": "",
          "ktsn": 120000013752
        },
        "species": {
          "sci": "praescutellaris",
          "kr": "뿔벌레붙이",
          "ktsn": 120000013753
        },
        "subspecies": null,
        "variety": null
      },
      "flags": {
        "egspcsYn": "N",
        "ntmYn": "N",
        "korUnqBispYn": "N",
        "dispYn": "N",
        "hrmflSpecsYn": "N",
        "phspYn": "N",
        "mprsCrtureDsgnSpecsYn": "N",
        "ntnClimtVartnIdctSpecsYn": "N",
        "cptrPckngPrhbSpecsYn": "N",
        "artfcPrlrtCptrPrmsnSpecsYn": "N",
        "expIncmPrmsnTrgtSpecsYn": "N",
        "ovseaShpgotAprvTrgtSpecsYn": "N",
        "eatprhbSpecsYn": "N",
        "hntgAnmlYn": "N",
        "wldflwAnmlYn": "N",
        "sttyMngSpecsYn": "N",
        "corsynSeYn": "Y"
      },
      "flagsLabeled": {
        "멸종위기종": "N",
        "천연기념물": "N",
        "한국고유종": "N",
        "생태계교란생물": "N",
        "유해야생생물(추정)": "N",
        "위해우려종(추정)": "N",
        "해양보호생물(추정)": "N",
        "국가 기후변화 지표종(추정)": "N",
        "포획·채집 금지(추정)": "N",
        "인공증식 포획 허가(추정)": "N",
        "수출·수입 허가 대상(추정)": "N",
        "해외 반출 승인 대상(추정)": "N",
        "식용 금지(추정)": "N",
        "수렵 동물(추정)": "N",
        "야생 동물(추정)": "N",
        "상태 관리종(추정)": "N",
        "정명 채택 여부(추정)": "Y"
      },
      "activeFlags": [
        {
          "key": "corsynSeYn",
          "label": "정명 채택 여부(추정)",
          "semantic": "acceptedName"
        }
      ]
    },
    {
      "ktsn": 120000013757,
      "scientificName": "kozlovi",
      "commonName": "먼지송장벌레",
      "nomenclaturalAuthor": "Senenov and Znojko",
      "namingYear": "1932",
      "taxonomy": {
        "phylum": {
          "sci": "Arthropoda",
          "kr": "절지동물문",
          "ktsn": 120000013748
        },
        "class": {
          "sci": "Insecta",
          "kr": "곤충강",
          "ktsn": 120000013749
        },
        "order": {
          "sci": "Coleoptera",
          "kr": "딱정벌레목",
          "ktsn": 120000013750
        },
        "family": {
          "sci": "Agyrtidae",
          "kr": "먼지송장벌레과",
          "ktsn": 120000013754
        },
        "genus": {
          "sci": "Apteroloma",
          "kr": "먼지송장벌레속",
          "ktsn": 120000013755
        },
        "species": {
          "sci": "kozlovi",
          "kr": "",
          "ktsn": 120000013756
        },
        "subspecies": {
          "sci": "kozlovi",
          "kr": "먼지송장벌레"
        },
        "variety": null
      },
      "flags": {
        "egspcsYn": "N",
        "ntmYn": "N",
        "korUnqBispYn": "N",
        "dispYn": "N",
        "hrmflSpecsYn": "N",
        "phspYn": "N",
        "mprsCrtureDsgnSpecsYn": "N",
        "ntnClimtVartnIdctSpecsYn": "N",
        "cptrPckngPrhbSpecsYn": "N",
        "artfcPrlrtCptrPrmsnSpecsYn": "N",
        "expIncmPrmsnTrgtSpecsYn": "N",
        "ovseaShpgotAprvTrgtSpecsYn": "N",
        "eatprhbSpecsYn": "N",
        "hntgAnmlYn": "N",
        "wldflwAnmlYn": "N",
        "sttyMngSpecsYn": "N",
        "corsynSeYn": "Y"
      },
      "flagsLabeled": {
        "멸종위기종": "N",
        "천연기념물": "N",
        "한국고유종": "N",
        "생태계교란생물": "N",
        "유해야생생물(추정)": "N",
        "위해우려종(추정)": "N",
        "해양보호생물(추정)": "N",
        "국가 기후변화 지표종(추정)": "N",
        "포획·채집 금지(추정)": "N",
        "인공증식 포획 허가(추정)": "N",
        "수출·수입 허가 대상(추정)": "N",
        "해외 반출 승인 대상(추정)": "N",
        "식용 금지(추정)": "N",
        "수렵 동물(추정)": "N",
        "야생 동물(추정)": "N",
        "상태 관리종(추정)": "N",
        "정명 채택 여부(추정)": "Y"
      },
      "activeFlags": [
        {
          "key": "corsynSeYn",
          "label": "정명 채택 여부(추정)",
          "semantic": "acceptedName"
        }
      ]
    },
    {
      "ktsn": 120000013759,
      "scientificName": "koebelei",
      "commonName": "큰먼지송장벌레",
      "nomenclaturalAuthor": "Van Dyke",
      "namingYear": "1928",
      "taxonomy": {
        "phylum": {
          "sci": "Arthropoda",
          "kr": "절지동물문",
          "ktsn": 120000013748
        },
        "class": {
          "sci": "Insecta",
          "kr": "곤충강",
          "ktsn": 120000013749
        },
        "order": {
          "sci": "Coleoptera",
          "kr": "딱정벌레목",
          "ktsn": 120000013750
        },
        "family": {
          "sci": "Agyrtidae",
          "kr": "먼지송장벌레과",
          "ktsn": 120000013754
        },
        "genus": {
          "sci": "Pteroloma",
          "kr": "",
          "ktsn": 120000013758
        },
        "species": {
          "sci": "koebelei",
          "kr": "큰먼지송장벌레",
          "ktsn": 120000013759
        },
        "subspecies": null,
        "variety": null
      },
      "flags": {
        "egspcsYn": "N",
        "ntmYn": "N",
        "korUnqBispYn": "N",
        "dispYn": "N",
        "hrmflSpecsYn": "N",
        "phspYn": "N",
        "mprsCrtureDsgnSpecsYn": "N",
        "ntnClimtVartnIdctSpecsYn": "N",
        "cptrPckngPrhbSpecsYn": "N",
        "artfcPrlrtCptrPrmsnSpecsYn": "N",
        "expIncmPrmsnTrgtSpecsYn": "N",
        "ovseaShpgotAprvTrgtSpecsYn": "N",
        "eatprhbSpecsYn": "N",
        "hntgAnmlYn": "N",
        "wldflwAnmlYn": "N",
        "sttyMngSpecsYn": "N",
        "corsynSeYn": "Y"
      },
      "flagsLabeled": {
        "멸종위기종": "N",
        "천연기념물": "N",
        "한국고유종": "N",
        "생태계교란생물": "N",
        "유해야생생물(추정)": "N",
        "위해우려종(추정)": "N",
        "해양보호생물(추정)": "N",
        "국가 기후변화 지표종(추정)": "N",
        "포획·채집 금지(추정)": "N",
        "인공증식 포획 허가(추정)": "N",
        "수출·수입 허가 대상(추정)": "N",
        "해외 반출 승인 대상(추정)": "N",
        "식용 금지(추정)": "N",
        "수렵 동물(추정)": "N",
        "야생 동물(추정)": "N",
        "상태 관리종(추정)": "N",
        "정명 채택 여부(추정)": "Y"
      },
      "activeFlags": [
        {
          "key": "corsynSeYn",
          "label": "정명 채택 여부(추정)",
          "semantic": "acceptedName"
        }
      ]
    },
    {
      "ktsn": 120000013762,
      "scientificName": "sinica",
      "commonName": "백두벌레",
      "nomenclaturalAuthor": "Yu & Stork",
      "namingYear": "1991",
      "taxonomy": {
        "phylum": {
          "sci": "Arthropoda",
          "kr": "절지동물문",
          "ktsn": 120000013748
        },
        "class": {
          "sci": "Insecta",
          "kr": "곤충강",
          "ktsn": 120000013749
        },
        "order": {
          "sci": "Coleoptera",
          "kr": "딱정벌레목",
          "ktsn": 120000013750
        },
        "family": {
          "sci": "Amphizoidae",
          "kr": "백두벌레과",
          "ktsn": 120000013760
        },
        "genus": {
          "sci": "Amphizoa",
          "kr": "백두벌레속",
          "ktsn": 120000013761
        },
        "species": {
          "sci": "sinica",
          "kr": "백두벌레",
          "ktsn": 120000013762
        },
        "subspecies": null,
        "variety": null
      },
      "flags": {
        "egspcsYn": "N",
        "ntmYn": "N",
        "korUnqBispYn": "N",
        "dispYn": "N",
        "hrmflSpecsYn": "N",
        "phspYn": "N",
        "mprsCrtureDsgnSpecsYn": "N",
        "ntnClimtVartnIdctSpecsYn": "N",
        "cptrPckngPrhbSpecsYn": "N",
        "artfcPrlrtCptrPrmsnSpecsYn": "N",
        "expIncmPrmsnTrgtSpecsYn": "N",
        "ovseaShpgotAprvTrgtSpecsYn": "N",
        "eatprhbSpecsYn": "N",
        "hntgAnmlYn": "N",
        "wldflwAnmlYn": "N",
        "sttyMngSpecsYn": "N",
        "corsynSeYn": "Y"
      },
      "flagsLabeled": {
        "멸종위기종": "N",
        "천연기념물": "N",
        "한국고유종": "N",
        "생태계교란생물": "N",
        "유해야생생물(추정)": "N",
        "위해우려종(추정)": "N",
        "해양보호생물(추정)": "N",
        "국가 기후변화 지표종(추정)": "N",
        "포획·채집 금지(추정)": "N",
        "인공증식 포획 허가(추정)": "N",
        "수출·수입 허가 대상(추정)": "N",
        "해외 반출 승인 대상(추정)": "N",
        "식용 금지(추정)": "N",
        "수렵 동물(추정)": "N",
        "야생 동물(추정)": "N",
        "상태 관리종(추정)": "N",
        "정명 채택 여부(추정)": "Y"
      },
      "activeFlags": [
        {
          "key": "corsynSeYn",
          "label": "정명 채택 여부(추정)",
          "semantic": "acceptedName"
        }
      ]
    },
    {
      "ktsn": 120000013766,
      "scientificName": "coiffaiti",
      "commonName": "개미뿔벌레",
      "nomenclaturalAuthor": "",
      "namingYear": "",
      "taxonomy": {
        "phylum": {
          "sci": "Arthropoda",
          "kr": "절지동물문",
          "ktsn": 120000013748
        },
        "class": {
          "sci": "Insecta",
          "kr": "곤충강",
          "ktsn": 120000013749
        },
        "order": {
          "sci": "Coleoptera",
          "kr": "딱정벌레목",
          "ktsn": 120000013750
        },
        "family": {
          "sci": "Anthicidae",
          "kr": "뿔벌레과",
          "ktsn": 120000013763
        },
        "genus": {
          "sci": "Anthelephila",
          "kr": "개미뿔벌레속",
          "ktsn": 120000013764
        },
        "species": {
          "sci": "bramina",
          "kr": "",
          "ktsn": 120000013765
        },
        "subspecies": {
          "sci": "coiffaiti",
          "kr": "개미뿔벌레"
        },
        "variety": null
      },
      "flags": {
        "egspcsYn": "N",
        "ntmYn": "N",
        "korUnqBispYn": "N",
        "dispYn": "N",
        "hrmflSpecsYn": "N",
        "phspYn": "N",
        "mprsCrtureDsgnSpecsYn": "N",
        "ntnClimtVartnIdctSpecsYn": "N",
        "cptrPckngPrhbSpecsYn": "N",
        "artfcPrlrtCptrPrmsnSpecsYn": "N",
        "expIncmPrmsnTrgtSpecsYn": "N",
        "ovseaShpgotAprvTrgtSpecsYn": "N",
        "eatprhbSpecsYn": "N",
        "hntgAnmlYn": "N",
        "wldflwAnmlYn": "N",
        "sttyMngSpecsYn": "N",
        "corsynSeYn": "Y"
      },
      "flagsLabeled": {
        "멸종위기종": "N",
        "천연기념물": "N",
        "한국고유종": "N",
        "생태계교란생물": "N",
        "유해야생생물(추정)": "N",
        "위해우려종(추정)": "N",
        "해양보호생물(추정)": "N",
        "국가 기후변화 지표종(추정)": "N",
        "포획·채집 금지(추정)": "N",
        "인공증식 포획 허가(추정)": "N",
        "수출·수입 허가 대상(추정)": "N",
        "해외 반출 승인 대상(추정)": "N",
        "식용 금지(추정)": "N",
        "수렵 동물(추정)": "N",
        "야생 동물(추정)": "N",
        "상태 관리종(추정)": "N",
        "정명 채택 여부(추정)": "Y"
      },
      "activeFlags": [
        {
          "key": "corsynSeYn",
          "label": "정명 채택 여부(추정)",
          "semantic": "acceptedName"
        }
      ]
    },
    {
      "ktsn": 120000013767,
      "scientificName": "imperatrix",
      "commonName": "엑스무늬개미뿔벌레",
      "nomenclaturalAuthor": "LaFerté-Sénectère",
      "namingYear": "1849",
      "taxonomy": {
        "phylum": {
          "sci": "Arthropoda",
          "kr": "절지동물문",
          "ktsn": 120000013748
        },
        "class": {
          "sci": "Insecta",
          "kr": "곤충강",
          "ktsn": 120000013749
        },
        "order": {
          "sci": "Coleoptera",
          "kr": "딱정벌레목",
          "ktsn": 120000013750
        },
        "family": {
          "sci": "Anthicidae",
          "kr": "뿔벌레과",
          "ktsn": 120000013763
        },
        "genus": {
          "sci": "Anthelephila",
          "kr": "개미뿔벌레속",
          "ktsn": 120000013764
        },
        "species": {
          "sci": "imperatrix",
          "kr": "엑스무늬개미뿔벌레",
          "ktsn": 120000013767
        },
        "subspecies": null,
        "variety": null
      },
      "flags": {
        "egspcsYn": "N",
        "ntmYn": "N",
        "korUnqBispYn": "N",
        "dispYn": "N",
        "hrmflSpecsYn": "N",
        "phspYn": "N",
        "mprsCrtureDsgnSpecsYn": "N",
        "ntnClimtVartnIdctSpecsYn": "N",
        "cptrPckngPrhbSpecsYn": "N",
        "artfcPrlrtCptrPrmsnSpecsYn": "N",
        "expIncmPrmsnTrgtSpecsYn": "N",
        "ovseaShpgotAprvTrgtSpecsYn": "N",
        "eatprhbSpecsYn": "N",
        "hntgAnmlYn": "N",
        "wldflwAnmlYn": "N",
        "sttyMngSpecsYn": "N",
        "corsynSeYn": "Y"
      },
      "flagsLabeled": {
        "멸종위기종": "N",
        "천연기념물": "N",
        "한국고유종": "N",
        "생태계교란생물": "N",
        "유해야생생물(추정)": "N",
        "위해우려종(추정)": "N",
        "해양보호생물(추정)": "N",
        "국가 기후변화 지표종(추정)": "N",
        "포획·채집 금지(추정)": "N",
        "인공증식 포획 허가(추정)": "N",
        "수출·수입 허가 대상(추정)": "N",
        "해외 반출 승인 대상(추정)": "N",
        "식용 금지(추정)": "N",
        "수렵 동물(추정)": "N",
        "야생 동물(추정)": "N",
        "상태 관리종(추정)": "N",
        "정명 채택 여부(추정)": "Y"
      },
      "activeFlags": [
        {
          "key": "corsynSeYn",
          "label": "정명 채택 여부(추정)",
          "semantic": "acceptedName"
        }
      ]
    },
    {
      "ktsn": 120000013770,
      "scientificName": "cruralis",
      "commonName": "작은검은좀뿔벌레",
      "nomenclaturalAuthor": "Lewis",
      "namingYear": "1895",
      "taxonomy": {
        "phylum": {
          "sci": "Arthropoda",
          "kr": "절지동물문",
          "ktsn": 120000013748
        },
        "class": {
          "sci": "Insecta",
          "kr": "곤충강",
          "ktsn": 120000013749
        },
        "order": {
          "sci": "Coleoptera",
          "kr": "딱정벌레목",
          "ktsn": 120000013750
        },
        "family": {
          "sci": "Anthicidae",
          "kr": "뿔벌레과",
          "ktsn": 120000013763
        },
        "genus": {
          "sci": "Anthicomorphus",
          "kr": "",
          "ktsn": 120000013768
        },
        "species": {
          "sci": "cruralis",
          "kr": "작은검은좀뿔벌레",
          "ktsn": 120000013770
        },
        "subspecies": null,
        "variety": null
      },
      "flags": {
        "egspcsYn": "N",
        "ntmYn": "N",
        "korUnqBispYn": "N",
        "dispYn": "N",
        "hrmflSpecsYn": "N",
        "phspYn": "N",
        "mprsCrtureDsgnSpecsYn": "N",
        "ntnClimtVartnIdctSpecsYn": "N",
        "cptrPckngPrhbSpecsYn": "N",
        "artfcPrlrtCptrPrmsnSpecsYn": "N",
        "expIncmPrmsnTrgtSpecsYn": "N",
        "ovseaShpgotAprvTrgtSpecsYn": "N",
        "eatprhbSpecsYn": "N",
        "hntgAnmlYn": "N",
        "wldflwAnmlYn": "N",
        "sttyMngSpecsYn": "N",
        "corsynSeYn": "Y"
      },
      "flagsLabeled": {
        "멸종위기종": "N",
        "천연기념물": "N",
        "한국고유종": "N",
        "생태계교란생물": "N",
        "유해야생생물(추정)": "N",
        "위해우려종(추정)": "N",
        "해양보호생물(추정)": "N",
        "국가 기후변화 지표종(추정)": "N",
        "포획·채집 금지(추정)": "N",
        "인공증식 포획 허가(추정)": "N",
        "수출·수입 허가 대상(추정)": "N",
        "해외 반출 승인 대상(추정)": "N",
        "식용 금지(추정)": "N",
        "수렵 동물(추정)": "N",
        "야생 동물(추정)": "N",
        "상태 관리종(추정)": "N",
        "정명 채택 여부(추정)": "Y"
      },
      "activeFlags": [
        {
          "key": "corsynSeYn",
          "label": "정명 채택 여부(추정)",
          "semantic": "acceptedName"
        }
      ]
    },
    {
      "ktsn": 120000013772,
      "scientificName": "niponicus",
      "commonName": "검은좀뿔벌레",
      "nomenclaturalAuthor": "Lewis",
      "namingYear": "1895",
      "taxonomy": {
        "phylum": {
          "sci": "Arthropoda",
          "kr": "절지동물문",
          "ktsn": 120000013748
        },
        "class": {
          "sci": "Insecta",
          "kr": "곤충강",
          "ktsn": 120000013749
        },
        "order": {
          "sci": "Coleoptera",
          "kr": "딱정벌레목",
          "ktsn": 120000013750
        },
        "family": {
          "sci": "Anthicidae",
          "kr": "뿔벌레과",
          "ktsn": 120000013763
        },
        "genus": {
          "sci": "Anthicomorphus",
          "kr": "",
          "ktsn": 120000013768
        },
        "species": {
          "sci": "niponicus",
          "kr": "",
          "ktsn": 120000013771
        },
        "subspecies": {
          "sci": "niponicus",
          "kr": "검은좀뿔벌레"
        },
        "variety": null
      },
      "flags": {
        "egspcsYn": "N",
        "ntmYn": "N",
        "korUnqBispYn": "N",
        "dispYn": "N",
        "hrmflSpecsYn": "N",
        "phspYn": "N",
        "mprsCrtureDsgnSpecsYn": "N",
        "ntnClimtVartnIdctSpecsYn": "N",
        "cptrPckngPrhbSpecsYn": "N",
        "artfcPrlrtCptrPrmsnSpecsYn": "N",
        "expIncmPrmsnTrgtSpecsYn": "N",
        "ovseaShpgotAprvTrgtSpecsYn": "N",
        "eatprhbSpecsYn": "N",
        "hntgAnmlYn": "N",
        "wldflwAnmlYn": "N",
        "sttyMngSpecsYn": "N",
        "corsynSeYn": "Y"
      },
      "flagsLabeled": {
        "멸종위기종": "N",
        "천연기념물": "N",
        "한국고유종": "N",
        "생태계교란생물": "N",
        "유해야생생물(추정)": "N",
        "위해우려종(추정)": "N",
        "해양보호생물(추정)": "N",
        "국가 기후변화 지표종(추정)": "N",
        "포획·채집 금지(추정)": "N",
        "인공증식 포획 허가(추정)": "N",
        "수출·수입 허가 대상(추정)": "N",
        "해외 반출 승인 대상(추정)": "N",
        "식용 금지(추정)": "N",
        "수렵 동물(추정)": "N",
        "야생 동물(추정)": "N",
        "상태 관리종(추정)": "N",
        "정명 채택 여부(추정)": "Y"
      },
      "activeFlags": [
        {
          "key": "corsynSeYn",
          "label": "정명 채택 여부(추정)",
          "semantic": "acceptedName"
        }
      ]
    },
    {
      "ktsn": 120000013778,
      "scientificName": "assequens",
      "commonName": "북방깜장뿔벌레",
      "nomenclaturalAuthor": "",
      "namingYear": "",
      "taxonomy": {
        "phylum": {
          "sci": "Arthropoda",
          "kr": "절지동물문",
          "ktsn": 120000013748
        },
        "class": {
          "sci": "Insecta",
          "kr": "곤충강",
          "ktsn": 120000013749
        },
        "order": {
          "sci": "Coleoptera",
          "kr": "딱정벌레목",
          "ktsn": 120000013750
        },
        "family": {
          "sci": "Anthicidae",
          "kr": "뿔벌레과",
          "ktsn": 120000013763
        },
        "genus": {
          "sci": "Clavicollis",
          "kr": "좀개미뿔벌레속",
          "ktsn": 120000013777
        },
        "species": {
          "sci": "assequens",
          "kr": "북방깜장뿔벌레",
          "ktsn": 120000013778
        },
        "subspecies": null,
        "variety": null
      },
      "flags": {
        "egspcsYn": "N",
        "ntmYn": "N",
        "korUnqBispYn": "N",
        "dispYn": "N",
        "hrmflSpecsYn": "N",
        "phspYn": "N",
        "mprsCrtureDsgnSpecsYn": "N",
        "ntnClimtVartnIdctSpecsYn": "N",
        "cptrPckngPrhbSpecsYn": "N",
        "artfcPrlrtCptrPrmsnSpecsYn": "N",
        "expIncmPrmsnTrgtSpecsYn": "N",
        "ovseaShpgotAprvTrgtSpecsYn": "N",
        "eatprhbSpecsYn": "N",
        "hntgAnmlYn": "N",
        "wldflwAnmlYn": "N",
        "sttyMngSpecsYn": "N",
        "corsynSeYn": "Y"
      },
      "flagsLabeled": {
        "멸종위기종": "N",
        "천연기념물": "N",
        "한국고유종": "N",
        "생태계교란생물": "N",
        "유해야생생물(추정)": "N",
        "위해우려종(추정)": "N",
        "해양보호생물(추정)": "N",
        "국가 기후변화 지표종(추정)": "N",
        "포획·채집 금지(추정)": "N",
        "인공증식 포획 허가(추정)": "N",
        "수출·수입 허가 대상(추정)": "N",
        "해외 반출 승인 대상(추정)": "N",
        "식용 금지(추정)": "N",
        "수렵 동물(추정)": "N",
        "야생 동물(추정)": "N",
        "상태 관리종(추정)": "N",
        "정명 채택 여부(추정)": "Y"
      },
      "activeFlags": [
        {
          "key": "corsynSeYn",
          "label": "정명 채택 여부(추정)",
          "semantic": "acceptedName"
        }
      ]
    },
    {
      "ktsn": 120000013779,
      "scientificName": "laevipennis",
      "commonName": "좀개미뿔벌레",
      "nomenclaturalAuthor": "",
      "namingYear": "",
      "taxonomy": {
        "phylum": {
          "sci": "Arthropoda",
          "kr": "절지동물문",
          "ktsn": 120000013748
        },
        "class": {
          "sci": "Insecta",
          "kr": "곤충강",
          "ktsn": 120000013749
        },
        "order": {
          "sci": "Coleoptera",
          "kr": "딱정벌레목",
          "ktsn": 120000013750
        },
        "family": {
          "sci": "Anthicidae",
          "kr": "뿔벌레과",
          "ktsn": 120000013763
        },
        "genus": {
          "sci": "Clavicollis",
          "kr": "좀개미뿔벌레속",
          "ktsn": 120000013777
        },
        "species": {
          "sci": "laevipennis",
          "kr": "좀개미뿔벌레",
          "ktsn": 120000013779
        },
        "subspecies": null,
        "variety": null
      },
      "flags": {
        "egspcsYn": "N",
        "ntmYn": "N",
        "korUnqBispYn": "N",
        "dispYn": "N",
        "hrmflSpecsYn": "N",
        "phspYn": "N",
        "mprsCrtureDsgnSpecsYn": "N",
        "ntnClimtVartnIdctSpecsYn": "N",
        "cptrPckngPrhbSpecsYn": "N",
        "artfcPrlrtCptrPrmsnSpecsYn": "N",
        "expIncmPrmsnTrgtSpecsYn": "N",
        "ovseaShpgotAprvTrgtSpecsYn": "N",
        "eatprhbSpecsYn": "N",
        "hntgAnmlYn": "N",
        "wldflwAnmlYn": "N",
        "sttyMngSpecsYn": "N",
        "corsynSeYn": "Y"
      },
      "flagsLabeled": {
        "멸종위기종": "N",
        "천연기념물": "N",
        "한국고유종": "N",
        "생태계교란생물": "N",
        "유해야생생물(추정)": "N",
        "위해우려종(추정)": "N",
        "해양보호생물(추정)": "N",
        "국가 기후변화 지표종(추정)": "N",
        "포획·채집 금지(추정)": "N",
        "인공증식 포획 허가(추정)": "N",
        "수출·수입 허가 대상(추정)": "N",
        "해외 반출 승인 대상(추정)": "N",
        "식용 금지(추정)": "N",
        "수렵 동물(추정)": "N",
        "야생 동물(추정)": "N",
        "상태 관리종(추정)": "N",
        "정명 채택 여부(추정)": "Y"
      },
      "activeFlags": [
        {
          "key": "corsynSeYn",
          "label": "정명 채택 여부(추정)",
          "semantic": "acceptedName"
        }
      ]
    }
  ]
}